{
  "project_info": {
    "project_number": "180127260876",
    "firebase_url": "https://autolife-road-assistance-24h.firebaseio.com",
    "project_id": "autolife-road-assistance-24h",
    "storage_bucket": "autolife-road-assistance-24h.appspot.com"
  },
  "client": [
    {
      "client_info": {
        "mobilesdk_app_id": "1:180127260876:android:e83758c2d3475932",
        "android_client_info": {
          "package_name": "com.hand.roadassistance2"
        }
      },
      "oauth_client": [
        {
          "client_id": "180127260876-5b9keggshipqb5vtgfg63rsr8q352ita.apps.googleusercontent.com",
          "client_type": 1,
          "android_info": {
            "package_name": "com.hand.roadassistance2",
            "certificate_hash": "d701af2f3cadd57cde4c5307daf6bd9b82542f56"
          }
        },
        {
          "client_id": "180127260876-lk9fpu13085j4f95upkqppeb6qhp7bba.apps.googleusercontent.com",
          "client_type": 3
        }
      ],
      "api_key": [
        {
          "current_key": "AIzaSyC5mIGjGW-KbSzYf2o4JpCeQDk6Qw9gDy0"
        }
      ],
      "services": {
        "analytics_service": {
          "status": 1
        },
        "appinvite_service": {
          "status": 2,
          "other_platform_oauth_client": [
            {
              "client_id": "180127260876-lk9fpu13085j4f95upkqppeb6qhp7bba.apps.googleusercontent.com",
              "client_type": 3
            }
          ]
        },
        "ads_service": {
          "status": 2
        }
      }
    }
  ],
  "configuration_version": "1"
}